{
  "0x00e53c169da54a7e11172aeedf8eb87f060f479e": 194.65,
  "0x151D4E809bbb1D18816FB0b54bD1760763d55be9": 2.68,
  "0x1cc18962b919ef90085a8b21f8ddc95824fbad9e": 2.29,
  "0x2bf2deb40639201c9a94c9e33b4852d9aea5fd2d": 31.89,
  "0x2e28b9b74d6d99d4697e913b82b41ef1cac51c6c": 0.98,
  "0x3747e3e107223539fd09bb730b055a1f11f78adf": 26.61,
  "0x37ff7d4459ad96e0b01275e5efffe091f33c2cad": 16.98,
  "0x3c2b7b578dd2175a1c3524aa0d515106282bf108": 46.75,
  "0x4ddd56e2f34338839bb5953515833950ea680afb": 3.35,
  "0x58f876857a02d6762e0101bb5c46a8c1ed44dc16": 13.87,
  "0x59fac9e98479fc9979ae2a0c7422af50bcbb9b26": 6.57,
  "0x5b0a3b98c2f01741a11e57a9d0595b254e62f9f2": 0,
  "0x5d937c3966002cbd9d32c890a59439b4b300a14d": 114.77,
  "0x67efef66a55c4562144b9acfcfbc62f9e4269b3e": 7.15,
  "0x69dee989c30b5ffe40867f5fc14f00e4bce7b681": 3.04,
  "0x6a445ceb72c8b1751755386c3990055ff92e14a0": 6.43,
  "0x74fa517715c4ec65ef01d55ad5335f90dce7cc87": 20.1,
  "0x7b4682d2b3f8670b125af6aea8d7ed2daa43bdc1": 5.62,
  "0x894bd57afd8efc93d9171cb585d11d0977557425": 9.37,
  "0x946696344e7d4346b223e1cf77035a76690d6a73": 32.13,
  "0xb5d108578be3750209d1b3a8f45ffee8c5a75146": 3.41,
  "0xb5e33fe13a821e55ed33c884589a804b1b4f6fd8": 4,
  "0xc19dfd34d3ba5816df9cbdaa02d32a9f8dc6f6fc": 31.66,
  "0xcaa662ad41a662b81be2aea5d59ec0697628665f": 5.99,
  "0xdcfbb12ded3fea12d2a078bc6324131cd14bf835": 5.53,
  "0xe267018c943e77992e7e515724b07b9ce7938124": 6.45,
  "0xe834bf723f5bdff34a5d1129f3c31ea4787bc76a": 23.21,
  "0xe8d5d81dac092ae61d097f84efe230759bf2e522": 6.22,
  "0xf90baa331cfd40f094476e752bf272892170d399": 52.61,
  "0xfdfde3af740a22648b9dd66d05698e5095940850": 24.01,
  "0x04b56a5b3f45cfeafbfdcfc999c14be5434f2146": 18.98,
  "0x0648ff5de80adf54aac07ece2490f50a418dde23": 5.16,
  "0x1472976e0b97f5b2fc93f1fff14e2b5c4447b64f": 44.55,
  "0x24d3b0ed4c444a4f6882d527cbf67adc8c026582": 4.21,
  "0x289841bfb694767bcb56fbc7b741ab4b4d97d490": 9.16,
  "0x28ea5894d4dbbe90bb58ee3bab2869387d711c87": 36.16,
  "0x2a995d355d5df641e878c0f366685741fd18d004": 1.62,
  "0x2d5db889392bc3c8b023a8631ca230a033eea1b8": 8.78,
  "0x3c2c77353e2f6ac1578807b6b2336bf3a3cbb014": 20.98,
  "0x3cd338c3bb249b6b3c55799f85a589febbbff9dd": 2.77,
  "0x3e19c18fe3458a6065d8f0844cb7eae52c9dae07": 26.83,
  "0x3e4370204f598205998143f07ebcc486e441b456": 11.02,
  "0x46c6ba71af7648cd7f67d0ad4d16f75be251ed12": 10.53,
  "0x547a355e70cd1f8caf531b950905af751dbef5e6": 25.21,
  "0x6e98beb694ff1cdb1ee130edd2b21b0298683d58": 3.17,
  "0x7275278c94b5e20708380561c4af98f38ddc6374": 39.45,
  "0x7759283571da8c0928786a96ae601944e10461ff": 11.86,
  "0x89ebf9cd99864f6e51bd7a578965922029cab977": 29.43,
  "0x89ee0491ce55d2f7472a97602a95426216167189": 5.29,
  "0x8b2824d57eebf07f5aff5c91fa67ed7c501a9f43": 50.63,
  "0x92247860a03f48d5c6425c7ca35cdcfcb1013aa1": 14.05,
  "0x9392a1f471d9aa14c0b8eb28bd7a3f4a814727be": 5.69,
  "0x9d2296e2fe3cdbf2eb3e3e2ca8811bafa42eedff": 10.89,
  "0xa39af17ce4a8eb807e076805da1e2b8ea7d0755b": 12.33,
  "0xb87b857670a44356f2b70337e0f218713d2378e8": 3.07,
  "0xba01662e978de7d67f8ffc937726215eb8995d17": 48.23,
  "0xc2d00de94795e60fb76bc37d899170996cbda436": 10.63,
  "0xcdb0016d97fd0e7ec2c3b78aa4786cbd8e19c14c": 21.71,
  "0xea26b78255df2bbc31c1ebf60010d78670185bd0": 5.13,
  "0xec6557348085aa57c72514d67070dc863c0a5a8c": 2,
  "0x1090c996fd1490d15dd7906322ee676a5cc3cf82": 0.38,
  "0x1d94cb25895abd6ccfef863c53372bb462aa6b86": 1250.64,
  "0x2030845ce7d4224523fd2f03ca20afe4aad1d890": 1.5,
  "0x222f93187f15f354d41ff6a7703ef7e18cdd5103": 4.62,
  "0x226af4e918fcf3e62e5eeec867a3e78aaa7bb01d": 14.21,
  "0x41f049d990d38305504631c9835f6f856bf1ba67": 28.34,
  "0x48028de4a9b0d3d91180333d796021ec7757ba1b": 9.07,
  "0x4dca4d427511bc327639b222da18fa5e334f686f": 25.86,
  "0x51bf99bbae59b67e5ce2fa9c17b683384773f8b3": 26.38,
  "0x6045931e511ef7e53a4a817f971e0ca28c758809": 11.22,
  "0x804678fa97d91b974ec2af3c843270886528a9e6": 16.26,
  "0x8853e3309a31583ea438f7704681f46f0d4d909b": 7.13,
  "0x8d3ff27d2ad6a9556b7c4f82f4d602d20114bc90": 9.75,
  "0x8e04b3972b5c25766c681dfd30a8a1cbf6dcc8c1": 6.65,
  "0x8fa59693458289914db0097f5f366d771b7a7c3f": 9.54,
  "0xa0387ebea6be90849c2261b911fbbd52b4c9eac4": 9.06,
  "0xa4963b38b271c0d714593063497fc786fa4029ce": 5.92,
  "0xb8b4383b49d451bbea63bc4421466e1086da6f18": 24.89,
  "0xbc7ac609fa730239190a70952e64ee1dfc2530ac": 3.42,
  "0xc74f7243766269dec5b85b0ef4af186e909c1b06": 2.36,
  "0xcecfc2789af72ed151589a96a59f3a1abc65c3b5": 27.96,
  "0xd171b26e4484402de70e3ea256be5a2630d7e88d": 2.16,
  "0xdc7188ac11e124b1fa650b73ba88bf615ef15256": 12.01,
  "0xdfa808da5cfb9aba5fb3748ff85888f79174f378": 6.11,
  "0xec95ff6281c3ad8e27372fa6675eb337640b8e5e": 1.8,
  "0xecf30fbecfa642012f54212a3be92eef1e48edac": 2.48,
  "0xef5212ada83ec2cc105c409df10b8806d20e3b35": 12.23,
  "0xef7767677867552cfa699148b96a03358a9be779": 17.73,
  "0xf23bad605e94de0e3b60c9718a43a94a5af43915": 3.46,
  "0xf74ee1e10e097dc326a2ad004f9cc95cb71088d3": 1.72,
  "0x029d66f9c0469450b7b4834b8ddc6a1118cec3e1": 11.75,
  "0x0604471c532f9febad3e37190b667f44bd0894b3": 119.8,
  "0x0716725d78081a9e0e1ff81516f5415b399e274d": 6.51,
  "0x2c624c9ecf16cb81ab85cc2c0b0c5e12a09afda6": 1.04,
  "0x4cc442220be1ce560c1f2573f8ca8f460b3e4172": 6.75,
  "0x4d057f769d930eafd597b49d6fb2e1009a73a702": 3.33,
  "0x4eafbf68a2d50291ffd163d4e00ad0f040aae707": 0,
  "0x4fd6d315bef387fad2322fbc64368fc443f0886d": 2.38,
  "0x61010e6cba3b56ba47e9dfd56da682dacfe76131": 5.49,
  "0x6a00e41561ac36a78dba1d09091b0f00c4e53724": 5.97,
  "0x7752e1fa9f3a2e860856458517008558deb989e3": 6.9,
  "0x8046fa66753928f35f7db23ae0188ee6743c2fba": 0.7,
  "0x8271d7eafeeb8f24d7c9fe1acce2ae20611972e5": 27.34,
  "0x950fd020f8e4b8c57285ec7020b7a204348dadfa": 6.72,
  "0x9730c791743300e9f984c9264395ce705a55da7c": 10.38,
  "0xa7a0b605343df36b748ff4b5f7578b3f2d0651ce": 40.19,
  "0xaa40f1ac20aafcfee8595da606d78c503c7e70a3": 25.99,
  "0xac109c8025f272414fd9e2faa805a583708a017f": 4.42,
  "0xb7cada0f120ca46745a024e6b9fe907b2fe10cf3": 4.93,
  "0xbcf01a42f6bc42f3cfe81b05519565044d65d22a": 0.36,
  "0xc20a92a1424b29b78dfaf92fd35d4cf8a06419b4": 18.35,
  "0xc309a6d2f1537922e06f15aa2eb21caa1b2eedb6": 9.05,
  "0xd02da76c813b9cd4516ed50442923e625f90228f": 31.83,
  "0xdaa89d335926628367b47852989bb22ee62ca5de": 0,
  "0xdc9a574b9b341d4a98ce29005b614e1e27430e74": 4.48,
  "0xdde420cbb3794ebd8ffc3ac69f9c78e5d1411870": 11.75,
  "0xe6b421a4408c82381b226ab5b6f8c4b639044359": 8.19,
  "0xea61020e5a128d2bec67d48f7cfbe3408db7e391": 5.66,
  "0xf45cd219aef8618a92baa7ad848364a158a24f33": 3.92,
  "0xffd4b200d3c77a0b691b5562d804b3bd54294e6e": 5.26,
  "0x0362ba706dfe8ed12ec1470ab171d8dcb1c72b8d": 19.57,
  "0x123d475e13aa54a43a7421d94caa4459da021c77": 3.2,
  "0x13321acff4a27f3d2bca64b8beac6e5fdaaaf12c": 5.15,
  "0x1434bb50196a0c7ea825940b1dfd8aad25d79817": 27.19,
  "0x153ad7d25b0b810497483d0cee8af42fc533fec8": 1.18,
  "0x20c6de8983fb2d641c55004646aef40b4ea66e18": 0.06,
  "0x222c3cbb89647bf77822435bd4c234a04272a77a": 4.55,
  "0x3578b1f9bce98d2f4d293b422d8850fdf48b1f21": 20.61,
  "0x3e42c1f7239231e3752b507764445dd8e6a570d5": 2.81,
  "0x3f1a9f3d9aad8bd339ed4853f345d2ef89fbfe0c": 10.01,
  "0x510b29a93ebf098f3fc24a16541aaa0114d07056": 13.65,
  "0x5a58609da96469e9def3fe344bc39b00d18eb9a5": 1.79,
  "0x5afef8567414f29f0f927a0f2787b188624c10e2": 14.17,
  "0x6615ce60d71513aa4849269dd63821d324a23f8c": 4.84,
  "0x678edb8b268e73db57b7694c163e1dc296b6e219": 3.13,
  "0x6a97867a4b7eb7646ffb1f359ad582e9903aa1c2": 4.25,
  "0x6d0c831254221ba121fb53fb44df289a6558867d": 11.34,
  "0x81d776c90c89b8d51e9497d58338933127e2fa80": 0.92,
  "0x853784b7bde87d858555715c0123374242db7943": 4.55,
  "0x89666d026696660e93bf6edf57b71a68615768b7": 8.26,
  "0x8f6baf368e7a4f6e2c9c995f22702d5e654a0237": 9.11,
  "0xa5bb44c6f5fd9b836e5a654c8abbccc96a15dee5": 9.03,
  "0xc13aa76aac067c86ae38028019f414d731b3d86a": 12.07,
  "0xcad7019d6d84a3294b0494aef02e73bd0f2572eb": 10.1,
  "0xe094c686ad6cdda57b9564457f541fbf099b948a": 1.85,
  "0xe482249cd295c0d1e9d2baaee71e66de21024c68": 25.2,
  "0xe60b4e87645093a42fa9dcc5d0c8df6e67f1f9d2": 23.42,
  "0xe98585bbb2dc81854ff100a3d9d7b0f53e0dafed": 16.29,
  "0xf1ec67fa1881796bff63db3e1a301ce9cb787fad": 2.41,
  "0xf3bc6fc080ffcc30d93df48bfa2aa14b869554bb": 2.26,
  "0x05faf555522fa3f93959f86b41a3808666093210": 6.92,
  "0x133ee93fe93320e1182923e1a640912ede17c90c": 2.94,
  "0x16afc4f2ad82986bbe2a4525601f8199ab9c832d": 3.93,
  "0x1b415c3ec8095afbf9d78882b3a6263c4ad141b5": 5.56,
  "0x1f37d4226d23d09044b8005c127c0517bd7e94fd": 3.2,
  "0x21dd71ab78ede3033c976948f769d506e4f489ee": 12.41,
  "0x2354ef4df11afacb85a5c7f98b624072eccddbb1": 2.12,
  "0x24eb18ba412701f278b172ef96697c4622b19da6": 22.97,
  "0x37908620def1491dd591b5a2d16022a33cdda415": 13.46,
  "0x4288706624e3dd839b069216eb03b8b9819c10d2": 4.24,
  "0x47c42b0a056a9c6e9c65b9ef79020af518e767a5": 7.89,
  "0x66fdb2eccfb58cf098eaa419e5efde841368e489": 4.72,
  "0x71b01ebddd797c8e9e0b003ea2f4fd207fbf46cc": 5.98,
  "0x7653d2c31440f04d2c6520d482dc5dbd7650f70a": 46.26,
  "0x856f9ad94ca8680b899214bb1eb3d235a3c33afe": 18.32,
  "0x8645148de4e339964ba480ae3478653b5bc6e211": 3.02,
  "0x8e799cb0737525ceb8a6c6ad07f748535ff6377b": 26.26,
  "0x91417426c3feaa3ca795921eb9fdd9715ad92537": 1.36,
  "0x942b294e59a8c47a0f7f20df105b082710f7c305": 2.6,
  "0xa3bfbbad526c6b856b1fdf73f99bcd894761fbf3": 0.38,
  "0xa9986fcbdb23c2e8b11ab40102990a08f8e58f06": 7.19,
  "0xb2678c414ebc63c9cc6d1a0fc45f43e249b50fde": 14.51,
  "0xc05654c66756ebb82c518598c5f1ea1a0199a563": 12.91,
  "0xc5768c5371568cf1114cddd52caed163a42626ed": 11.15,
  "0xc6b668548aa4a56792e8002a920d3159728121d5": 8.33,
  "0xc7a9c2af263ebb86139cca9349e49b17129ba033": 6.75,
  "0xc869a9943b702b03770b6a92d2b2d25cf3a3f571": 2.84,
  "0xcd68856b6e72e99b5eeaae7d41bb4a3b484c700d": 119.84,
  "0xd63b5cecb1f40d626307b92706df357709d05827": 6.27,
  "0xec6b56a736859ae8ea4beda16279ecd8c60da7ea": 3.23,
  "0x014608e87af97a054c9a49f81e1473076d51d9a3": 4.23,
  "0x03f18135c44c64ebfdcbad8297fe5bdafdbbdd86": 6.26,
  "0x168b273278f3a8d302de5e879aa30690b7e6c28f": 4.83,
  "0x16b9a82891338f9ba80e2d6970fdda79d1eb0dae": 14.85,
  "0x1bdcebca3b93af70b58c41272aea2231754b23ca": 7.09,
  "0x28415ff2c35b65b9e5c7de82126b4015ab9d031f": 9.71,
  "0x356dd24bff8e23bde0430f00ad0c290e33438bd7": 74.7,
  "0x3dcb1787a95d2ea0eb7d00887704eebf0d79bb13": 28.03,
  "0x44ea47f2765fd5d26b7ef0222736ad6fd6f61950": 17.73,
  "0x460b4193ec4c1a17372aa5fdcd44c520ba658646": 20.51,
  "0x468b2dc8dc75990ee3e9dc0648965ad6294e7914": 28.36,
  "0x61eb789d75a95caa3ff50ed7e47b96c132fec082": 3.23,
  "0x73566ca86248bd12f0979793e4671e99a40299a7": 11.06,
  "0x74e4716e431f45807dcf19f284c7aa99f18a4fbc": 4.86,
  "0x7eb5d86fd78f3852a3e0e064f2842d45a3db6ea2": 9.9,
  "0x7efaef62fddcca950418312c6c91aef321375a00": 2.83,
  "0x824eb9fadfb377394430d2744fa7c42916de3ece": 5.02,
  "0xacf47cbeaab5c8a6ee99263cfe43995f89fb3206": 9.5,
  "0xb6e34b5c65eda51bb1bd4ea5f79d385fb94b9504": 51.64,
  "0xce383277847f8217392eea98c5a8b4a7d27811b0": 23.67,
  "0xd8e2f8b6db204c405543953ef6359912fe3a88d6": 5.99,
  "0xd9bccbbbdfd9d67beb5d2273102ce0762421d1e3": 135.77,
  "0xdd5bad8f8b360d76d12fda230f8baf42fe0022cf": 6.82
}
